…
df_stang_long
```

    ## # A tibble: 26 x 5
    ##    thick alloy   angle     E    mu
    ##    <dbl> <chr>   <int> <dbl> <dbl>
    ##  1 0.022 al_24st     0 10600 0.321
    ##  2 0.022 al_24st    45 10700 0.329
    ##  3 0.022 al_24st    90 10500 0.31 
    ##  4 0.022 al_24st     0 10600 0.323
    ##  5 0.022 al_24st    45 10500 0.331
    ##  6 0.022 al_24st    90 10700 0.323
    ##  7 0.032 al_24st     0 10400 0.329
    ##  8 0.032 al_24st    45 10400 0.318
    ##  9 0.032 al_24st    90 10300 0.322
    ## 10 0.032 al_24st     0 10300 0.319
    ## # ... with 16 more rows
…
## Initial checks

<!-- ------------------------- -->

**q2** Perform a basic EDA on the aluminum data *without visualization*.
Use your analysis to answer the questions under *observations* below. In
addition, add your own question that you’d like to answer about the
data.

``` r
##
df_stang_long %>% select(-alloy) %>% arrange(thick, angle)
```

    ## # A tibble: 26 x 4
    ##    thick angle     E    mu
    ##    <dbl> <int> <dbl> <dbl>
    ##  1 0.022     0 10600 0.321
    ##  2 0.022     0 10600 0.323
    ##  3 0.022    45 10700 0.329
    ##  4 0.022    45 10500 0.331
    ##  5 0.022    90 10500 0.31 
    ##  6 0.022    90 10700 0.323
    ##  7 0.032     0 10400 0.329
    ##  8 0.032     0 10300 0.319
    ##  9 0.032    45 10400 0.318
    ## 10 0.032    45 10500 0.326
    ## # ... with 16 more rows
…
