…
ab3 <- 
  ab2 %>%
  separate(col = bacteria, into = c('before', NA, 'after'), sep = '[()]', remove = FALSE) %>% # So hacky
  unite(col = 'bacteria2', before, after, sep = ' ', na.rm = TRUE, remove = TRUE) %>%
  separate(col = bacteria2, into = c('genus', 'species'), remove = TRUE)
```

    ## Warning: Expected 3 pieces. Missing pieces filled with `NA` in 45 rows [1, 2, 3,
    ## 4, 5, 6, 7, 8, 9, 10, 11, 12, 13, 14, 15, 16, 17, 18, 19, 20, ...].

``` r
ab3
```

    ## # A tibble: 48 x 6
    ##    bacteria              genus       species   gram     antibiotic       mic
    ##    <chr>                 <chr>       <chr>     <chr>    <chr>          <dbl>
    ##  1 Aerobacter aerogenes  Aerobacter  aerogenes negative penicillin   870    
    ##  2 Aerobacter aerogenes  Aerobacter  aerogenes negative streptomycin   1    
    ##  3 Aerobacter aerogenes  Aerobacter  aerogenes negative neomycin       1.6  
    ##  4 Brucella abortus      Brucella    abortus   negative penicillin     1    
    ##  5 Brucella abortus      Brucella    abortus   negative streptomycin   2    
    ##  6 Brucella abortus      Brucella    abortus   negative neomycin       0.02 
    ##  7 Bacillus anthracis    Bacillus    anthracis positive penicillin     0.001
    ##  8 Bacillus anthracis    Bacillus    anthracis positive streptomycin   0.01 
    ##  9 Bacillus anthracis    Bacillus    anthracis positive neomycin       0.007
    ## 10 Diplococcus pneumonia Diplococcus pneumonia positive penicillin     0.005
    ## # ... with 38 more rows
…
