…
    ## Warning: 116 parsing failures.
    ##  row         col           expected actual                                                                 file
    ## 3105 errormargin 1/0/T/F/TRUE/FALSE    157 './data/ACSDT5Y2018.B01003_data_with_overlays_2020-07-27T003915.csv'
    ## 3106 errormargin 1/0/T/F/TRUE/FALSE    116 './data/ACSDT5Y2018.B01003_data_with_overlays_2020-07-27T003915.csv'
    ## 3107 errormargin 1/0/T/F/TRUE/FALSE    69  './data/ACSDT5Y2018.B01003_data_with_overlays_2020-07-27T003915.csv'
    ## 3108 errormargin 1/0/T/F/TRUE/FALSE    145 './data/ACSDT5Y2018.B01003_data_with_overlays_2020-07-27T003915.csv'
    ## 3109 errormargin 1/0/T/F/TRUE/FALSE    195 './data/ACSDT5Y2018.B01003_data_with_overlays_2020-07-27T003915.csv'
    ## .... ........... .................. ...... ....................................................................
    ## See problems(...) for more details.

``` r
df_pop
```

    ## # A tibble: 3,221 x 4
    ##    id             name                     population errormargin
    ##    <chr>          <chr>                         <dbl> <lgl>      
    ##  1 0500000US01001 Autauga County, Alabama       55200 NA         
    ##  2 0500000US01003 Baldwin County, Alabama      208107 NA         
    ##  3 0500000US01005 Barbour County, Alabama       25782 NA         
    ##  4 0500000US01007 Bibb County, Alabama          22527 NA         
    ##  5 0500000US01009 Blount County, Alabama        57645 NA         
    ##  6 0500000US01011 Bullock County, Alabama       10352 NA         
    ##  7 0500000US01013 Butler County, Alabama        20025 NA         
    ##  8 0500000US01015 Calhoun County, Alabama      115098 NA         
    ##  9 0500000US01017 Chambers County, Alabama      33826 NA         
    ## 10 0500000US01019 Cherokee County, Alabama      25853 NA         
    ## # ... with 3,211 more rows
…
